{
  "entrypoint": "index.html",
  "shell": "src/my-app.html",
  "fragments": [
    "src/cuentas/datos-cuentas.html",
    "src/cuentas/vista-crear-cuenta.html",
    "src/cuentas/vista-crear-movimiento.html",
    "src/cuentas/vista-cuenta.html",
    "src/cuentas/vista-cuentas.html",
    "src/cuentas/vista-detalle-cuentas.html",
    "src/cuentas/vista-lista-cuentas.html",
    "src/cuentas/vista-lista-movimientos.html",
    "src/cuentas/vista-movimiento.html",
    "src/usuarios/datos-usuarios.html",
    "src/usuarios/usuario-entrar.html",
    "src/usuarios/usuario-perfil.html",
    "src/usuarios/usuario-registrar.html",
    "src/my-view404.html",
    "src/app-config.html",
    "src/my-icons.html",
    "src/shared-styles.html"
  ],
  "sources": [
    "images/**/*",
    "src/**/*"
  ],
  "extraDependencies": [
    "bower_components/webcomponentsjs/*.js",
    "!bower_components/webcomponentsjs/gulpfile.js",
    "manifest.json"
  ],
  "lint": {
    "rules": ["polymer-2"]
  },
  "builds": [
    {
      "preset": "es6-unbundled"
    }
  ]
}
